{
  "DamageForAttacker": true,
  "DamageForVictim": true,
  "DisplayAttackerNameRange": 50,
  "DisplayBodyPart": true,
  "DisplayDistance": true,
  "DisplayTime": 0.3,
  "DisplayVictimNameRange": 50,
  "X_MaxAttacker": 0.575,
  "X_MaxVictim": 0.675,
  "X_MinAttacker": 0.455,
  "X_MinVictim": 0.755,
  "Y_MaxAttacker": 0.69,
  "Y_MaxVictim": 0.59,
  "Y_MinAttacker": 0.61,
  "Y_MinVictim": 0.51
}