{
  "CompassDirections": {
    "e": "Восток",
    "n": "Север",
    "ne": "Северо-Восток",
    "nw": "Северо-Запад",
    "s": "Юг",
    "se": "Юго-Восток",
    "sw": "Юго-Запад",
    "w": "Запад"
  },
  "Docks": {
    "BottomDock": {
      "AnchorX": "Left",
      "AnchorY": "Bottom",
      "Available": true,
      "BackgroundColor": "0 0 0 0.4",
      "Height": 0.03,
      "Margin": "0.005 0.005 0.005 0.005",
      "Width": 0.99
    },
    "TopDock": {
      "AnchorX": "Left",
      "AnchorY": "Top",
      "Available": true,
      "BackgroundColor": "0 0 0 0.4",
      "Height": 0.03,
      "Margin": "0.005 0.005 0.005 0.005",
      "Width": 0.99
    }
  },
  "Messages": [
    "Добро пожаловать!",
    "Берегись! Ты не один!",
    "Лиииииииииииииирой Дженкинс"
  ],
  "Panels": {
    "AirdropEvent": {
      "AnchorX": "Left",
      "AnchorY": "Bottom",
      "Autoload": true,
      "Available": true,
      "BackgroundColor": "0 0 0 0.4",
      "Dock": "BottomDock",
      "FadeOut": 0.0,
      "Height": 0.95,
      "Image": {
        "AnchorX": "Left",
        "AnchorY": "Bottom",
        "Available": true,
        "BackgroundColor": "0 0 0 0.4",
        "Height": 0.8,
        "Margin": "0 0.1 0.1 0.1",
        "Order": 1,
        "Url": "http://i.imgur.com/dble6vf.png",
        "Width": 0.8
      },
      "Margin": "0 0 0 0.005",
      "Order": 4,
      "PanelSettings": {
        "ActiveColor": "0 1 0 1",
        "InactiveColor": "1 1 1 0.1"
      },
      "Width": 0.018
    },
    "Clock": {
      "AnchorX": "Left",
      "AnchorY": "Bottom",
      "Autoload": true,
      "Available": true,
      "BackgroundColor": "0.1 0.1 0.1 0",
      "Dock": "BottomDock",
      "FadeOut": 0.0,
      "Height": 0.95,
      "Margin": "0 0 0 0",
      "Order": 1,
      "PanelSettings": {
        "ClockUpdateFrequency (seconds)": 4,
        "TimeFormat": "HH:mm"
      },
      "Text": {
        "Align": 4,
        "AnchorX": "Left",
        "AnchorY": "Bottom",
        "Available": true,
        "BackgroundColor": "0 0 0 0.4",
        "Content": "No Content",
        "FadeIn": 0.0,
        "FadeOut": 0.0,
        "FontColor": "1 1 1 1",
        "FontSize": 14,
        "Height": 0.95,
        "Margin": "0 0.01 0 0.01",
        "Order": 0,
        "Width": 1.0
      },
      "Width": 0.045
    },
    "Compass": {
      "AnchorX": "Left",
      "AnchorY": "Bottom",
      "Autoload": true,
      "Available": true,
      "BackgroundColor": "0 0 0 0.4",
      "Dock": "BottomDock",
      "FadeOut": 0.0,
      "Height": 0.95,
      "Image": {
        "AnchorX": "Left",
        "AnchorY": "Bottom",
        "Available": true,
        "BackgroundColor": "0 0 0 0.4",
        "Height": 0.8,
        "Margin": "0 0.01 0.1 0.03",
        "Order": 1,
        "Url": "http://i.imgur.com/dG5nOOJ.png",
        "Width": 0.188
      },
      "Margin": "0 0 0 0.005",
      "Order": 8,
      "PanelSettings": {
        "RefreshRate(s)": "1",
        "TextOrAngle": "text"
      },
      "Text": {
        "Align": 4,
        "AnchorX": "Left",
        "AnchorY": "Bottom",
        "Available": true,
        "BackgroundColor": "0 0 0 0.4",
        "Content": "No Content",
        "FadeIn": 0.0,
        "FadeOut": 0.0,
        "FontColor": "1 1 1 1",
        "FontSize": 12,
        "Height": 1.0,
        "Margin": "0 0.02 0 0",
        "Order": 2,
        "Width": 0.76
      },
      "Width": 0.07
    },
    "Coordinates": {
      "AnchorX": "Left",
      "AnchorY": "Bottom",
      "Autoload": true,
      "Available": true,
      "BackgroundColor": "0 0 0 0.4",
      "Dock": "BottomDock",
      "FadeOut": 0.0,
      "Height": 0.95,
      "Image": {
        "AnchorX": "Left",
        "AnchorY": "Bottom",
        "Available": true,
        "BackgroundColor": "0 0 0 0.4",
        "Height": 0.8,
        "Margin": "0 0.01 0.1 0.01",
        "Order": 1,
        "Url": "http://i.imgur.com/Kr1pQ5b.png",
        "Width": 0.13
      },
      "Margin": "0 0 0 0.005",
      "Order": 7,
      "PanelSettings": {
        "RefreshRate(s)": "3"
      },
      "Text": {
        "Align": 4,
        "AnchorX": "Left",
        "AnchorY": "Bottom",
        "Available": true,
        "BackgroundColor": "0 0 0 0.4",
        "Content": "No Content",
        "FadeIn": 0.0,
        "FadeOut": 0.0,
        "FontColor": "1 1 1 1",
        "FontSize": 12,
        "Height": 1.0,
        "Margin": "0 0.02 0 0",
        "Order": 2,
        "Width": 0.848
      },
      "Width": 0.095
    },
    "HelicopterEvent": {
      "AnchorX": "Left",
      "AnchorY": "Bottom",
      "Autoload": true,
      "Available": true,
      "BackgroundColor": "0 0 0 0.4",
      "Dock": "BottomDock",
      "FadeOut": 0.0,
      "Height": 0.95,
      "Image": {
        "AnchorX": "Left",
        "AnchorY": "Bottom",
        "Available": true,
        "BackgroundColor": "0 0 0 0.4",
        "Height": 0.8,
        "Margin": "0 0.15 0.1 0.1",
        "Order": 1,
        "Url": "http://i.imgur.com/hTTyTTx.png",
        "Width": 0.75
      },
      "Margin": "0 0 0 0.0005",
      "Order": 5,
      "PanelSettings": {
        "ActiveColor": "0.7 0.2 0.2 1",
        "InactiveColor": "1 1 1 0.1"
      },
      "Width": 0.02
    },
    "MessageBox": {
      "AnchorX": "Right",
      "AnchorY": "Bottom",
      "Autoload": true,
      "Available": true,
      "BackgroundColor": "0 0 0 0.4",
      "Dock": "BottomDock",
      "FadeOut": 0.0,
      "Height": 0.95,
      "Margin": "0 0 0 0.005",
      "Order": 7,
      "PanelSettings": {
        "MessageUpdateFrequency (seconds)": 20,
        "MsgOrder": "normal"
      },
      "Text": {
        "Align": 4,
        "AnchorX": "Left",
        "AnchorY": "Bottom",
        "Available": true,
        "BackgroundColor": "0 0 0 0.4",
        "Content": "No Content",
        "FadeIn": 0.0,
        "FadeOut": 0.0,
        "FontColor": "1 1 1 1",
        "FontSize": 14,
        "Height": 0.95,
        "Margin": "0 0 0 0.005",
        "Order": 0,
        "Width": 1.0
      },
      "Width": 0.3
    },
    "OPlayers": {
      "AnchorX": "Left",
      "AnchorY": "Bottom",
      "Autoload": true,
      "Available": true,
      "BackgroundColor": "0 0 0 0.4",
      "Dock": "BottomDock",
      "FadeOut": 0.0,
      "Height": 0.95,
      "Image": {
        "AnchorX": "Left",
        "AnchorY": "Bottom",
        "Available": true,
        "BackgroundColor": "0 0 0 0.4",
        "Height": 0.8,
        "Margin": "0 0.05 0.1 0.05",
        "Order": 1,
        "Url": "http://i.imgur.com/n9EYIWi.png",
        "Width": 0.17
      },
      "Margin": "0 0 0 0.005",
      "Order": 2,
      "Text": {
        "Align": 4,
        "AnchorX": "Left",
        "AnchorY": "Bottom",
        "Available": true,
        "BackgroundColor": "0 0 0 0.4",
        "Content": "No Content",
        "FadeIn": 0.0,
        "FadeOut": 0.0,
        "FontColor": "1 1 1 1",
        "FontSize": 14,
        "Height": 1.0,
        "Margin": "0 0 0 0.005",
        "Order": 2,
        "Width": 0.68
      },
      "Width": 0.07
    },
    "Radiation": {
      "AnchorX": "Left",
      "AnchorY": "Bottom",
      "Autoload": true,
      "Available": true,
      "BackgroundColor": "0 0 0 0.4",
      "Dock": "BottomDock",
      "FadeOut": 0.0,
      "Height": 0.95,
      "Image": {
        "AnchorX": "Left",
        "AnchorY": "Bottom",
        "Available": true,
        "BackgroundColor": "0 0 0 0.4",
        "Height": 0.8,
        "Margin": "0 0.15 0.1 0.1",
        "Order": 1,
        "Url": "http://i.imgur.com/owVdFsK.png",
        "Width": 0.75
      },
      "Margin": "0 0 0 0.0005",
      "Order": 6,
      "PanelSettings": {
        "ActiveColor": "1 1 0 1",
        "InactiveColor": "1 1 1 0.1",
        "RefreshRate(s)": "3"
      },
      "Width": 0.02
    },
    "Sleepers": {
      "AnchorX": "Left",
      "AnchorY": "Bottom",
      "Autoload": true,
      "Available": true,
      "BackgroundColor": "0 0 0 0.4",
      "Dock": "BottomDock",
      "FadeOut": 0.0,
      "Height": 0.95,
      "Image": {
        "AnchorX": "Left",
        "AnchorY": "Bottom",
        "Available": true,
        "BackgroundColor": "0 0 0 0.4",
        "Height": 0.8,
        "Margin": "0 0.05 0.1 0.05",
        "Order": 1,
        "Url": "http://i.imgur.com/XIIZkqD.png",
        "Width": 0.22
      },
      "Margin": "0 0 0 0.005",
      "Order": 3,
      "Text": {
        "Align": 4,
        "AnchorX": "Left",
        "AnchorY": "Bottom",
        "Available": true,
        "BackgroundColor": "0 0 0 0.4",
        "Content": "No Content",
        "FadeIn": 0.0,
        "FadeOut": 0.0,
        "FontColor": "1 1 1 1",
        "FontSize": 14,
        "Height": 1.0,
        "Margin": "0 0 0 0.005",
        "Order": 2,
        "Width": 0.63
      },
      "Width": 0.055
    }
  },
  "ThirdPartyPanels": {},
  "TimeFormats": [
    "H:mm",
    "HH:mm",
    "h:mm",
    "h:mm tt"
  ]
}