{
  "76561199829600654": {
    "Name": "Cesar13",
    "Friends": [
      76561200613353090
    ]
  },
  "76561200613353090": {
    "Name": "xPioneer",
    "Friends": [
      76561199829600654
    ]
  },
  "76561200940241746": {
    "Name": "Nullfati",
    "Friends": [
      76561197993749325
    ]
  },
  "76561197993749325": {
    "Name": "DrCramer",
    "Friends": [
      76561200940241746
    ]
  }
}