{
  "Kits": {
    "gun": {
      "name": "gun",
      "description": null,
      "max": 20,
      "cooldown": 600.0,
      "authlevel": 0,
      "hide": false,
      "npconly": false,
      "permission": null,
      "image": null,
      "items": [
        {
          "itemid": 2077983581,
          "bp": false,
          "container": "belt",
          "amount": 1,
          "skinid": 0,
          "weapon": true,
          "mods": []
        },
        {
          "itemid": 2115555558,
          "bp": false,
          "container": "belt",
          "amount": 15,
          "skinid": 0,
          "weapon": false,
          "mods": []
        }
      ]
    },
    "start": {
      "name": "start",
      "description": null,
      "max": 10,
      "cooldown": 1200.0,
      "authlevel": 0,
      "hide": false,
      "npconly": false,
      "permission": null,
      "image": null,
      "items": [
        {
          "itemid": 707427396,
          "bp": false,
          "container": "wear",
          "amount": 1,
          "skinid": 0,
          "weapon": false,
          "mods": []
        },
        {
          "itemid": 1767561705,
          "bp": false,
          "container": "wear",
          "amount": 1,
          "skinid": 0,
          "weapon": false,
          "mods": []
        },
        {
          "itemid": -1397343301,
          "bp": false,
          "container": "wear",
          "amount": 1,
          "skinid": 0,
          "weapon": false,
          "mods": []
        },
        {
          "itemid": 707432758,
          "bp": false,
          "container": "wear",
          "amount": 1,
          "skinid": 0,
          "weapon": false,
          "mods": []
        },
        {
          "itemid": 927253046,
          "bp": false,
          "container": "main",
          "amount": 1,
          "skinid": 0,
          "weapon": false,
          "mods": []
        },
        {
          "itemid": 1734319168,
          "bp": false,
          "container": "main",
          "amount": 5,
          "skinid": 0,
          "weapon": false,
          "mods": []
        },
        {
          "itemid": 110547964,
          "bp": false,
          "container": "main",
          "amount": 1,
          "skinid": 0,
          "weapon": false,
          "mods": []
        },
        {
          "itemid": -139769801,
          "bp": false,
          "container": "main",
          "amount": 1,
          "skinid": 0,
          "weapon": false,
          "mods": []
        },
        {
          "itemid": 789892804,
          "bp": false,
          "container": "belt",
          "amount": 1,
          "skinid": 0,
          "weapon": false,
          "mods": []
        },
        {
          "itemid": -1289478934,
          "bp": false,
          "container": "belt",
          "amount": 1,
          "skinid": 0,
          "weapon": false,
          "mods": []
        },
        {
          "itemid": 586484018,
          "bp": false,
          "container": "belt",
          "amount": 2,
          "skinid": 0,
          "weapon": false,
          "mods": []
        },
        {
          "itemid": -337261910,
          "bp": false,
          "container": "belt",
          "amount": 10,
          "skinid": 0,
          "weapon": false,
          "mods": []
        },
        {
          "itemid": -1127699509,
          "bp": false,
          "container": "belt",
          "amount": 1,
          "skinid": 0,
          "weapon": false,
          "mods": []
        },
        {
          "itemid": -789202811,
          "bp": false,
          "container": "belt",
          "amount": 1,
          "skinid": 0,
          "weapon": false,
          "mods": []
        }
      ]
    },
    "med": {
      "name": "med",
      "description": null,
      "max": 10,
      "cooldown": 12000.0,
      "authlevel": 0,
      "hide": false,
      "npconly": false,
      "permission": null,
      "image": null,
      "items": [
        {
          "itemid": 586484018,
          "bp": false,
          "container": "main",
          "amount": 2,
          "skinid": 0,
          "weapon": false,
          "mods": []
        },
        {
          "itemid": -337261910,
          "bp": false,
          "container": "main",
          "amount": 10,
          "skinid": 0,
          "weapon": false,
          "mods": []
        },
        {
          "itemid": 1685058759,
          "bp": false,
          "container": "main",
          "amount": 2,
          "skinid": 0,
          "weapon": false,
          "mods": []
        },
        {
          "itemid": -789202811,
          "bp": false,
          "container": "main",
          "amount": 1,
          "skinid": 0,
          "weapon": false,
          "mods": []
        },
        {
          "itemid": 927253046,
          "bp": false,
          "container": "main",
          "amount": 1,
          "skinid": 0,
          "weapon": false,
          "mods": []
        },
        {
          "itemid": -341443994,
          "bp": false,
          "container": "main",
          "amount": 5,
          "skinid": 0,
          "weapon": false,
          "mods": []
        }
      ]
    }
  }
}